%YAML 1.1
%TAG !u! tag:unity3d.com,2011:
--- !u!1045 &1
EditorBuildSettings:
  m_ObjectHideFlags: 0
  serializedVersion: 2
  m_Scenes:
  - enabled: 1
    path: Assets/Scenes/InstructionPage.unity
    guid: 52f088f7141f3b7439d0fa85f5686161
  - enabled: 1
    path: Assets/Scenes/MainMenu.unity
    guid: 0b82144fc5de2d44ebf84d2565ba0f2c
  - enabled: 1
    path: Assets/Scenes/ScoreBoardPage.unity
    guid: 81b54bdc0af52264b89674651e7ba80a
  - enabled: 1
    path: Assets/Scenes/Level1.unity
    guid: 69ed447fcf6a1cf4f97b74c5f33ae1d8
  - enabled: 1
    path: Assets/Scenes/Level2.unity
    guid: f99127c042cd1b74c928dfc96e48c042
  - enabled: 1
    path: Assets/Scenes/Level3.unity
    guid: 89b6ca6a5393f0a42a06b8a6bd53d729
  m_configObjects: {}
